[
  {
    "title": "Bow & Sparrow",
    "points": 1,
    "special": false,
    "imageSrc": "",
    "powerTitle": "Letter Strike",
    "powerDescription": "Choose a letter from the set of tiles in front of you. Your opponent tells you if that letter is in their Secret Word.",
    "power": ""
  },
  {
    "title": "Dinowlsaur",
    "points": 4,
    "special": false,
    "imageSrc": "",
    "powerTitle": "First Letter",
    "powerDescription": "Your opponent tells you the first letter of their Secret Word.",
    "power": ""
  },
  {
    "title": "Manatweet",
    "points": 1,
    "special": false,
    "imageSrc": "",
    "powerTitle": "Relative Word Length",
    "powerDescription": "Build a valid word from the tiles in front of you. Your opponent tells you whether it is longer, shorter, or at the same length as their Secret Word.",
    "power": ""
  },
  {
    "title": "Best Nester",
    "points": 4,
    "special": false,
    "imageSrc": "",
    "powerTitle": "Word Builder",
    "powerDescription": "Build a valid word in from hte set of the tiles in front of you. Your opponent flips over (face-down) every tile in hte word you built that DOES NOT appear in their Secret Word. Treat duplicate Letter Tiles separately.",
    "power": ""
  },
  {
    "title": "Caterpidgeon",
    "points": 3,
    "special": false,
    "imageSrc": "",
    "powerTitle": "Exact Word Length",
    "powerDescription": "Your opponent tells you the exact word length of their Secret Word.",
    "power": ""
  },
  {
    "title": "Num Reaper",
    "points": 1,
    "special": false,
    "imageSrc": "",
    "powerTitle": "Last Letter",
    "powerDescription": "Your opponent tells you the least letter of their Secret Word.",
    "power": ""
  },
  {
    "title": "Yolo Dodo",
    "points": 5,
    "special": true,
    "imageSrc": "",
    "powerTitle": "Rhyme Time",
    "powerDescription": "Your opponent says a valid word that rhymes with their Secret Word. If no rhyming word exists, they have to make one up.",
    "power": ""
  },
  {
    "title": "Quid Pro Quail",
    "points": 1,
    "special": true,
    "imageSrc": "",
    "powerTitle": "Give and Take",
    "powerDescription": "You and your opponent each reveal on Letter Tile that hasn't already been revealed in each of your Secret Words. If your word has any duplicate Letter Tiles, treat them separately. This can't be used if your opponent has already correctly guessed your Secret Word.",
    "power": ""
  },
  {
    "title": "Emperor Drenguen",
    "points": 2,
    "special": true,
    "imageSrc": "",
    "powerTitle": "Burn the Copies",
    "powerDescription": "Choose a letter that appears at least twice in the set of hte tiles in front of you. Your opponent tells how many times that letter is in their Secret Word.",
    "power": ""
  },
  {
    "title": "Aerial Bombirdment",
    "points": 3,
    "special": true,
    "imageSrc": "",
    "powerTitle": "Super Strike",
    "powerDescription": "Choose a letter from the set of tiles in front of you. Your opponent tells you if that letter is in their Secret Word. If it is, they ALSO reveal the position of one instance of that Letter Tile.",
    "power": ""
  },
  {
    "title": "Toucommunist",
    "points": 1,
    "special": true,
    "imageSrc": "",
    "powerTitle": "Let's Share",
    "powerDescription": "",
    "power": ""
  },
  {
    "title": "Business Bird",
    "points": 1,
    "special": true,
    "imageSrc": "",
    "powerTitle": "Buy a Vowel",
    "powerDescription": "",
    "power": ""
  },
  {
    "title": "Blowfinch",
    "points": 2,
    "special": true,
    "imageSrc": "",
    "powerTitle": "Vowel Count",
    "powerDescription": "",
    "power": ""
  },
  {
    "title": "Loch Next Monster",
    "points": 0,
    "special": true,
    "imageSrc": "",
    "powerTitle": "Dynamic Word Builder",
    "powerDescription": "",
    "power": ""
  },
  {
    "title": "Ravin Raven",
    "points": 3,
    "special": true,
    "imageSrc": "",
    "powerTitle": "Consonant Count",
    "powerDescription": "",
    "power": ""
  },
  {
    "title": "Permed Eagle",
    "points": 1,
    "special": true,
    "imageSrc": "",
    "powerTitle": "Rare Find",
    "powerDescription": "",
    "power": ""
  }
]